﻿{
  "$schema": "https://raw.githubusercontent.com/DotNetAnalyzers/StyleCopAnalyzers/master/StyleCop.Analyzers/StyleCop.Analyzers/Settings/stylecop.schema.json",
  "settings": {
    "documentationRules": {
      "companyName": "AVM Up",
      "copyrightText": "Copyright (c) {companyName}",
      "documentationCulture": "fr-FR",
      "fileNamingConvention": "metadata",
      "xmlHeader": false
    },
    "indentation": {
      "useTabs": true
    },
    "layoutRules": {
      "newlineAtEndOfFile": "omit"
    },
    "orderingRules": {
      "usingDirectivesPlacement": "insideNamespace"
    }
  }
}